%YAML 1.1
%TAG !u! tag:unity3d.com,2011:
--- !u!78 &1
TagManager:
  serializedVersion: 2
  tags:
  - Through
  layers:
  - Default
  - TransparentFX
  - Ignore Raycast
  - Player
  - Water
  - UI
  - Platform
  - Ground
  - Enemies
  - Item
  - Sign
  - 
  - 
  - 
  - 
  - 
  - 
  - 
  - 
  - 
  - 
  - 
  - 
  - 
  - 
  - 
  - 
  - 
  - 
  - 
  - 
  - 
  m_SortingLayers:
  - name: Bg
    uniqueID: 4077802595
    locked: 0
  - name: Default
    uniqueID: 0
    locked: 0
  - name: Enemy
    uniqueID: 3401861011
    locked: 0
  - name: Player
    uniqueID: 1052187821
    locked: 0
